149 118 15.8 107 4.3 221.16
214 89 37.7 79 4 254.79
216 49 38.6 50 5.3 174.77
183 105 29 109 2.6 238.56
214 37 20.2 64 9.4 144.55
86 84 23.5 46 2 185.14
214 61 22.2 108 8.1 174.48
137 97 43.6 54 0.9 242.04
138 32 27.1 101 4.7 124.23
104 94 34.6 48 0.9 200.39
176 117 43.5 54 2.7 281.39
199 120 45 72 9.4 295.52
167 68 39.3 50 9.8 206.13
105 64 13.4 91 7.5 143.14
83 28 27.4 82 1.8 119.84
101 57 21.8 101 6.3 147.56
197 40 44.6 63 10 185.70
193 83 33.5 97 5.5 208.00
83 35 36.4 104 5.3 140.65
83 111 27.2 96 1 226.17